{
  "arise": ["arises", "arose", "arisen"],
  "beat": ["beats", "beat", "beaten"],
  "become": ["becomes", "became", "became"],
  "begin": ["begins", "began", "begun"],
  "bend": ["bends", "bent", "bent"],
  "bet": ["bets", "bet", "bet"],
  "bid": ["bids", "bid", "bid"],
  "bite": ["bites", "bit", "bitten"],
  "blow": ["blows", "blew", "blown"],
  "break": ["breaks", "broke", "broken"],
  "bring": ["brings", "brought", "brought"],
  "build": ["builds", "built", "built"],
  "burn": ["burns", "burnt", "burnt"],
  "buy": ["buys", "bought", "bought"],
  "catch": ["catches", "caught", "caught"],
  "choose": ["chooses", "chose", "chosen"],
  "come": ["comes", "came", "come"],
  "cost": ["costs", "cost", "cost"],
  "cut": ["cuts", "cut", "cut"],
  "dig": ["digs", "dug", "dug"],
  "dive": ["dives", "dove", "dived"],
  "draw": ["draws", "drew", "drawn"],
  "dream": ["dreams", "dreamt", "dreamt"],
  "drive": ["drives", "drove", "driven"],
  "drink": ["drinks", "drank", "drunk"],
  "eat": ["eats", "ate", "eaten"],
  "fall": ["falls", "fell", "fallen"],
  "feel": ["feels", "felt", "felt"],
  "fight": ["fights", "fought", "fought"],
  "find": ["finds", "found", "found"],
  "fly": ["flies", "flew", "flown"],
  "forget": ["forgets", "forgot", "forgotten"],
  "forgive": ["forgives", "forgave", "forgiven"],
  "freeze": ["freezes", "froze", "frozen"],
  "get": ["gets", "got", "got"],
  "give": ["gives", "gave", "given"],
  "go": ["goes", "went", "gone"],
  "grow": ["grows", "grew", "grown"],
  "hang": ["hangs", "hung", "hung"],
  "hear": ["hears", "heard", "heard"],
  "hide": ["hides", "hid", "hidden"],
  "hit": ["hits", "hit", "hit"],
  "hold": ["holds", "held", "held"],
  "hurt": ["hurts", "hurt", "hurt"],
  "keep": ["keeps", "kept", "kept"],
  "know": ["knows", "knew", "known"],
  "lay": ["lays", "laid", "laid"],
  "lead": ["leads", "led", "led"],
  "leave": ["leaves", "left", "left"],
  "lend": ["lends", "lent", "lent"],
  "let": ["lets", "let", "let"],
  "lie": ["lies", "lay", "lain"],
  "lose": ["loses", "lost", "lost"],
  "make": ["makes", "made", "made"],
  "mean": ["means", "meant", "meant"],
  "meet": ["meets", "met", "met"],
  "pay": ["pays", "paid", "paid"],
  "put": ["puts", "put", "put"],
  "read": ["reads", "read", "read"],
  "ride": ["rides", "rode", "ridden"],
  "ring": ["rings", "rang", "rung"],
  "rise": ["rises", "rose", "risen"],
  "run": ["runs", "ran", "run"],
  "say": ["says", "said", "said"],
  "see": ["sees", "saw", "seen"],
  "sell": ["sells", "sold", "sold"],
  "send": ["sends", "sent", "sent"],
  "show": ["shows", "showed", "shown"],
  "shut": ["shuts", "shut", "shut"],
  "sing": ["sings", "sang", "sung"],
  "sit": ["sits", "sat", "sat"],
  "sleep": ["sleeps", "slept", "slept"],
  "speak": ["speaks", "spoke", "spoken"],
  "spend": ["spends", "spent", "spent"],
  "stand": ["stands", "stood", "stood"],
  "swim": ["swims", "swam", "swum"],
  "take": ["takes", "took", "taken"],
  "teach": ["teaches", "taught", "taught"],
  "tear": ["tears", "tore", "torn"],
  "tell": ["tells", "told", "told"],
  "think": ["thinks", "thought", "thought"],
  "throw": ["throws", "threw", "thrown"],
  "understand": ["understands", "understood", "understood"],
  "wake": ["wakes", "woke", "woken"],
  "wear": ["wears", "wore", "worn"],
  "win": ["wins", "won", "won"],
  "write": ["writes", "wrote", "written"],
  "arrive": ["arrives", "arrived", "arrived"],
  "agree": ["agrees", "agreed", "agreed"],
  "call": ["calls", "called", "called"],
  "carry": ["carries", "carried", "carried"],
  "continue": ["continues", "continued", "continued"],
  "cook": ["cooks", "cooked", "cooked"],
  "cycle": ["cycles", "cycled", "cycled"],
  "die": ["dies", "died", "died"],
  "explain": ["explains", "explained", "explained"],
  "follow": ["follows", "followed", "followed"],
  "happen": ["happens", "happened", "happened"],
  "help": ["helps", "helped", "helped"],
  "hope": ["hopes", "hoped", "hoped"],
  "listen": ["listens", "listened", "listened"],
  "live": ["lives", "lived", "lived"],
  "love": ["loves", "loved", "loved"],
  "need": ["needs", "needed", "needed"],
  "move": ["moves", "moved", "moved"],
  "offer": ["offers", "offered", "offered"],
  "open": ["opens", "opened", "opened"],
  "pass": ["passes", "passed", "passed"],
  "remember": ["remembers", "remembered", "remembered"],
  "search": ["searches", "searched", "searched"],
  "seem": ["seems", "seemed", "seemed"],
  "start": ["starts", "started", "started"],
  "stop": ["stops", "stopped", "stopped"],
  "try": ["tries", "tried", "tried"],
  "turn": ["turns", "turned", "turned"],
  "walk": ["walks", "walked", "walked"],
  "watch": ["watches", "watched", "watched"],
  "wait": ["waits", "waited", "waited"],
  "marry": ["marries", "married", "married"],
  "study": ["studies", "studied", "studied"],
  "hate": ["hates", "hated", "hated"],
  "like": ["likes", "liked", "liked"],
  "look": ["looks", "looked", "looked"],
  "want": ["wants", "wanted", "wanted"],
  "use": ["uses", "used", "used"],
  "ask": ["asks", "asked", "asked"],
  "work": ["works", "worked", "worked"],
  "play": ["plays", "played", "played"]
}
